﻿+++++ Sara Halilović
+++++ 17592
+++++ 2017/18
+++++ RMA
+++++
+++++ Spirala 1
+++++ Urađeno: 
+++++ Zadatak 1
+++++ Zadatak 2
+++++ Zadatak 3: Kreiran layout element_lista, ListaKnjiga: ListView + button pretraga, klik na pretragu vraća na pocetnu aktivnost,kreiran customAdapter
